# Blender v2.81 (sub 16) OBJ File: 'flying_car_right.blend'
# www.blender.org
mtllib flying_car_down.mtl
o Cube
v -0.052328 0.422682 -1.416248
v -0.127652 0.208120 -1.419099
v -0.864036 0.706409 -1.120764
v -0.939360 0.491847 -1.123615
v -0.050391 0.420874 -1.145415
v -0.125715 0.206312 -1.148266
v -0.793810 -1.000000 -0.793810
v -1.000000 -0.798788 -1.048576
v 0.793810 -1.000000 -0.793810
v 1.000000 -0.798788 -1.048576
v -0.793810 -1.000000 1.206190
v -1.000000 -0.798954 0.882006
v -0.793810 -1.000000 0.793810
v 0.793810 -1.000000 1.206190
v 0.793810 -1.000000 0.793810
v 1.000000 -0.798954 0.882006
v -1.000000 -0.799532 2.790568
v -0.793810 -1.000000 2.483947
v 0.793810 -1.000000 2.483947
v 1.000000 -0.799532 2.790568
v -0.941297 0.493655 -1.394448
v -0.865973 0.708217 -1.391597
v 0.845926 0.726706 -1.416248
v 0.926142 0.513925 -1.419099
v 0.041745 0.422298 -1.120764
v 0.121961 0.209516 -1.123615
v 0.848572 0.726566 -1.145415
v 0.928789 0.513785 -1.148266
v 0.119315 0.209656 -1.394448
v 0.039099 0.422438 -1.391597
v 0.046987 -0.089761 -1.416248
v 0.122311 0.124801 -1.419099
v 0.858695 -0.373488 -1.120764
v 0.934019 -0.158927 -1.123615
v 0.045049 -0.087953 -1.145415
v 0.120373 0.126609 -1.148266
v 0.935956 -0.160735 -1.394448
v 0.860632 -0.375297 -1.391597
v -0.851268 -0.393786 -1.416248
v -0.931484 -0.181004 -1.419099
v -0.047087 -0.089377 -1.120764
v -0.127303 0.123404 -1.123615
v -0.853914 -0.393646 -1.145415
v -0.934130 -0.180864 -1.148266
v -0.124657 0.123264 -1.394448
v -0.044440 -0.089517 -1.391597
v -1.000000 1.027194 -1.489397
v -0.729592 1.292272 -1.553391
v 0.729592 1.292272 -1.553391
v 1.000000 1.027194 -1.489397
v -1.000000 0.583820 0.070456
v -0.729592 0.878607 -0.102554
v 0.729592 0.878607 -0.102554
v 1.000000 0.583820 0.070456
v 1.000000 -0.540172 2.920503
v 0.729592 -0.295102 3.043279
v -0.729592 -0.295102 3.043279
v -1.000000 -0.540172 2.920503
v 1.000000 0.597292 0.809195
v 0.729592 0.893280 0.769934
v 1.000000 0.291461 1.777171
v 0.729592 0.536039 1.900624
v -1.000000 0.291461 1.777172
v -0.729592 0.536039 1.900624
v -1.000000 0.597292 0.809195
v -0.729592 0.893280 0.769933
v -0.793810 -1.000000 1.206190
v -0.793810 -1.000000 0.793810
v 0.793810 -1.000000 1.206190
v 0.793810 -1.000000 0.793810
v -0.793810 -1.000000 0.793810
v -0.710396 -0.975495 0.877223
v -0.710396 -0.975495 1.122777
v -0.793810 -1.000000 1.206190
v 0.793810 -1.000000 1.206190
v 0.710396 -0.975495 1.122777
v 0.710396 -0.975495 0.877223
v 0.793810 -1.000000 0.793810
vt 0.435968 0.461458
vt 0.249686 0.587606
vt 0.288885 0.304400
vt 0.981389 0.336679
vt 0.777119 0.527453
vt 0.777129 0.336667
vt 0.017660 0.506459
vt 0.183996 0.363396
vt 0.199523 0.491160
vt 0.777144 0.038042
vt 0.981392 0.275106
vt 0.777132 0.275094
vt 0.204399 0.714506
vt 0.022536 0.729805
vt 0.000000 0.203767
vt 0.202181 0.000000
vt 0.181862 0.188467
vt 0.727691 0.497494
vt 0.653506 0.684571
vt 0.619444 0.671292
vt 0.091693 0.858609
vt 0.122212 0.729809
vt 0.122212 0.858613
vt 0.436056 0.203059
vt 0.452569 0.353461
vt 0.742676 0.288260
vt 0.548154 0.444749
vt 0.538893 0.384039
vt 0.576650 0.390303
vt 0.000000 0.000000
vt 0.000000 0.000000
vt 0.000000 0.000000
vt 0.742684 0.000000
vt 0.503237 0.150312
vt 1.000000 0.000015
vt 0.981404 0.038054
vt 0.981379 0.527464
vt 0.742684 0.573232
vt 0.533312 0.106083
vt 0.724467 0.239640
vt 0.335620 0.847433
vt 0.365998 0.887790
vt 0.335620 0.887670
vt 0.091693 0.858561
vt 0.061140 0.729805
vt 0.091693 0.729882
vt 0.305178 0.887872
vt 0.335620 0.847757
vt 0.335620 0.888196
vt 0.341616 0.846632
vt 0.378055 0.718733
vt 0.378055 0.847433
vt 0.378055 0.718936
vt 0.414201 0.846626
vt 0.378055 0.847630
vt 0.152733 0.729964
vt 0.122212 0.858372
vt 0.122212 0.729805
vt 0.501820 0.803755
vt 0.480908 0.761317
vt 0.501820 0.763520
vt 0.030587 0.729805
vt 0.061140 0.858614
vt 0.030587 0.858600
vt 0.480908 0.885147
vt 0.502230 0.845220
vt 0.502230 0.885659
vt 0.742676 0.675183
vt 0.779109 0.574324
vt 0.779109 0.676260
vt 0.213642 0.735667
vt 0.249379 0.825746
vt 0.213642 0.831608
vt 0.183189 0.858575
vt 0.213642 0.729805
vt 0.213642 0.858387
vt 0.414201 0.847440
vt 0.444644 0.887555
vt 0.414201 0.887879
vt 0.450321 0.717954
vt 0.480908 0.846725
vt 0.450321 0.846747
vt 0.450321 0.886901
vt 0.480701 0.847522
vt 0.480701 0.887676
vt 0.414201 0.846583
vt 0.450321 0.718464
vt 0.450321 0.847116
vt 0.341616 0.846632
vt 0.305178 0.718733
vt 0.341616 0.717932
vt 0.152733 0.858608
vt 0.183189 0.729826
vt 0.183189 0.858629
vt 0.480908 0.804269
vt 0.502230 0.844194
vt 0.480908 0.844708
vt 0.000000 0.729862
vt 0.030587 0.858477
vt 0.000000 0.858534
vt 0.480908 0.758088
vt 0.501801 0.721161
vt 0.501801 0.761317
vt 0.213642 0.930274
vt 0.249652 0.831608
vt 0.249652 0.926687
vt 0.815542 0.675183
vt 0.779109 0.574323
vt 0.815542 0.573247
vt 0.772367 0.724946
vt 0.806713 0.684571
vt 0.843063 0.684571
vt 0.249686 0.695683
vt 0.483777 0.493734
vt 0.456728 0.702465
vt 0.231181 0.347436
vt 0.229354 0.197681
vt 0.483948 0.190466
vt 0.503237 0.366150
vt 0.249685 0.009102
vt 0.408844 0.000000
vt 0.244378 0.455588
vt 0.503237 0.960014
vt 0.503237 0.684571
vt 0.772367 0.960014
vt 0.000000 0.000000
vt 0.000000 0.000000
vt 0.000000 0.000000
vt 0.000000 0.000000
vt 0.000000 0.000000
vt 0.000000 0.000000
vt 0.000000 0.000000
vt 0.000000 0.000000
vt 0.000000 0.000000
vt 0.260910 0.730912
vt 0.293953 0.933742
vt 0.260910 0.933742
vt 0.249686 0.944578
vt 0.305178 0.717932
vt 0.293953 0.730912
vt 0.249686 0.717932
vt 0.305177 0.944578
vt 0.002134 0.378695
vt 0.020319 0.015299
vt 0.742676 0.348092
vt 0.091693 0.729805
vt 0.327588 0.024412
vt 0.360907 0.012481
vt 1.000000 0.573247
vt 0.576850 0.632858
vt 0.742676 0.000000
vt 0.365998 0.847553
vt 0.061140 0.858483
vt 0.305178 0.847433
vt 0.341616 0.717932
vt 0.414201 0.717932
vt 0.152733 0.858531
vt 0.480908 0.801552
vt 0.061140 0.729820
vt 0.480908 0.844708
vt 0.742676 0.573247
vt 0.249379 0.729805
vt 0.183189 0.729993
vt 0.444644 0.847116
vt 0.480908 0.717932
vt 0.450321 0.846747
vt 0.414201 0.717932
vt 0.305178 0.847433
vt 0.152733 0.729805
vt 0.502230 0.803755
vt 0.030587 0.729805
vt 0.480908 0.717932
vt 0.213642 0.835194
vt 0.779109 0.676259
vt 0.843063 0.983196
vt 0.806713 0.983196
vt 0.772367 0.942821
vt 0.503237 0.717932
vt 0.772367 0.684571
vt 0.735979 1.000000
vt 0.539625 1.000000
vn -1.0000 0.0000 0.0000
vn 0.0000 -1.0000 0.0000
vn 0.0000 0.9999 -0.0168
vn 0.0000 0.9617 0.2742
vn 0.0000 0.8087 0.5882
vn 1.0000 -0.0000 0.0000
vn 0.0228 -0.0213 0.9995
vn 0.0000 0.9535 0.3013
vn -0.6981 -0.7160 0.0000
vn 0.6981 -0.7160 0.0000
vn 0.0000 0.0000 1.0000
vn -0.6984 -0.7157 -0.0001
vn 0.0000 -0.7848 -0.6198
vn 0.0000 -0.8370 0.5472
vn 0.6979 -0.7162 -0.0002
vn -0.6971 -0.7170 0.0000
vn -0.9435 0.3311 0.0090
vn -0.0228 0.0213 -0.9995
vn 0.9435 -0.3311 -0.0090
vn -0.3312 -0.9435 -0.0039
vn 0.3312 0.9435 0.0039
vn 0.0312 -0.0016 0.9995
vn -0.9356 -0.3528 0.0090
vn -0.0312 0.0016 -0.9995
vn 0.9356 0.3528 -0.0090
vn 0.3528 -0.9357 -0.0039
vn -0.3528 0.9357 0.0039
vn -0.0228 0.0213 0.9995
vn 0.9435 -0.3311 0.0090
vn 0.0228 -0.0213 -0.9995
vn -0.9435 0.3311 -0.0090
vn 0.3312 0.9435 -0.0039
vn -0.3312 -0.9435 0.0039
vn -0.0312 0.0016 0.9995
vn 0.9356 0.3528 0.0090
vn 0.0312 -0.0016 -0.9995
vn -0.9356 -0.3528 -0.0090
vn -0.3528 0.9357 -0.0039
vn 0.3528 -0.9357 0.0039
vn 0.0000 -0.4479 0.8941
vn 0.6597 0.7227 0.2061
vn -0.6579 0.7244 0.2059
vn 0.7071 0.6743 0.2130
vn -0.7071 0.6743 0.2130
vn 0.7071 0.5718 0.4159
vn -0.7071 0.5718 0.4159
vn 0.7390 0.6735 -0.0123
vn -0.7402 0.6723 -0.0113
vn 0.0000 -0.2347 -0.9721
vn 0.2819 -0.9595 0.0000
vn -0.2819 -0.9595 0.0000
vn 0.0000 -0.9595 0.2819
vn 0.0000 -0.9595 -0.2819
vn 0.6984 -0.7157 -0.0001
vn 0.6971 -0.7170 0.0000
vn -0.6979 -0.7162 -0.0002
vn 0.6579 0.7244 0.2059
vn -0.6597 0.7227 0.2061
vn 0.7402 0.6723 -0.0113
vn -0.7390 0.6735 -0.0123
usemtl Material
s off
f 51/1/1 8/2/1 12/3/1
f 14/4/2 18/5/2 11/6/2
f 52/7/3 60/8/3 53/9/3
f 7/10/2 15/11/2 13/12/2
f 52/7/4 49/13/4 48/14/4
f 64/15/5 56/16/5 62/17/5
f 61/18/6 55/19/6 20/20/6
f 5/21/7 4/22/7 6/23/7
f 63/24/1 65/25/1 12/3/1
f 60/8/8 64/15/8 62/17/8
f 11/6/9 12/26/9 13/12/9
f 14/27/10 15/28/10 16/29/10
f 14/30/11 74/31/11 75/32/11
f 7/10/12 12/26/12 8/33/12
f 9/34/10 16/29/10 15/28/10
f 7/10/13 10/35/13 9/36/13
f 19/37/14 17/38/14 18/5/14
f 20/20/15 14/27/15 16/29/15
f 17/38/16 11/6/16 18/5/16
f 10/39/6 54/40/6 16/29/6
f 4/41/17 22/42/17 21/43/17
f 21/44/18 1/45/18 2/46/18
f 1/47/19 6/48/19 2/49/19
f 21/50/20 6/51/20 4/52/20
f 22/53/21 5/54/21 1/55/21
f 27/56/22 26/57/22 28/58/22
f 26/59/23 30/60/23 29/61/23
f 29/62/24 23/63/24 24/64/24
f 23/65/25 28/66/25 24/67/25
f 29/68/26 28/69/26 26/70/26
f 30/71/27 27/72/27 23/73/27
f 35/74/28 34/75/28 36/76/28
f 34/77/29 38/78/29 37/79/29
f 37/80/30 31/81/30 32/82/30
f 31/83/31 36/84/31 32/85/31
f 37/86/32 36/87/32 34/88/32
f 38/89/33 35/90/33 31/91/33
f 43/92/34 42/93/34 44/94/34
f 42/95/35 46/96/35 45/97/35
f 45/98/36 39/99/36 40/100/36
f 39/101/37 44/102/37 40/103/37
f 45/104/38 44/105/38 42/106/38
f 46/107/39 43/108/39 39/109/39
f 57/110/40 58/111/40 17/112/40
f 53/9/41 50/113/41 49/13/41
f 52/114/42 47/115/42 51/1/42
f 59/116/43 62/17/43 61/117/43
f 65/25/44 64/118/44 66/119/44
f 61/117/45 56/16/45 55/120/45
f 63/24/46 57/121/46 64/118/46
f 54/122/47 60/8/47 59/116/47
f 51/1/48 66/119/48 52/114/48
f 50/123/49 10/124/49 47/125/49
f 11/126/11 69/127/11 67/128/11
f 15/129/11 68/130/11 70/131/11
f 13/132/11 78/133/11 71/134/11
f 77/135/2 73/136/2 72/137/2
f 15/129/11 75/32/11 78/133/11
f 73/136/50 71/138/50 72/137/50
f 77/135/51 75/139/51 76/140/51
f 78/141/52 72/137/52 71/138/52
f 74/142/53 76/140/53 75/139/53
f 11/126/11 71/134/11 74/31/11
f 51/1/1 47/115/1 8/2/1
f 14/4/2 19/37/2 18/5/2
f 52/7/3 66/143/3 60/8/3
f 7/10/2 9/36/2 15/11/2
f 52/7/4 53/9/4 49/13/4
f 64/15/5 57/144/5 56/16/5
f 20/20/6 16/29/6 61/18/6
f 16/29/6 54/40/6 59/145/6
f 61/18/6 16/29/6 59/145/6
f 5/21/7 3/146/7 4/22/7
f 65/25/1 51/1/1 12/3/1
f 12/3/1 17/147/1 63/24/1
f 17/147/1 58/148/1 63/24/1
f 60/8/8 66/143/8 64/15/8
f 14/30/11 11/126/11 74/31/11
f 7/10/9 13/12/9 12/26/9
f 9/34/54 10/39/54 16/29/54
f 7/10/13 8/33/13 10/35/13
f 19/37/14 20/149/14 17/38/14
f 20/20/55 19/150/55 14/27/55
f 17/38/56 12/26/56 11/6/56
f 10/39/6 50/151/6 54/40/6
f 4/41/17 3/152/17 22/42/17
f 21/44/18 22/153/18 1/45/18
f 1/47/19 5/154/19 6/48/19
f 21/50/20 2/155/20 6/51/20
f 22/53/21 3/156/21 5/54/21
f 27/56/22 25/157/22 26/57/22
f 26/59/23 25/158/23 30/60/23
f 29/62/24 30/159/24 23/63/24
f 23/65/25 27/160/25 28/66/25
f 29/68/26 24/161/26 28/69/26
f 30/71/27 25/162/27 27/72/27
f 35/74/28 33/163/28 34/75/28
f 34/77/29 33/164/29 38/78/29
f 37/80/30 38/165/30 31/81/30
f 31/83/31 35/166/31 36/84/31
f 37/86/32 32/167/32 36/87/32
f 38/89/33 33/168/33 35/90/33
f 43/92/34 41/169/34 42/93/34
f 42/95/35 41/170/35 46/96/35
f 45/98/36 46/171/36 39/99/36
f 39/101/37 43/172/37 44/102/37
f 45/104/38 40/173/38 44/105/38
f 46/107/39 41/174/39 43/108/39
f 17/112/40 20/175/40 57/110/40
f 20/175/40 55/176/40 56/177/40
f 57/110/40 20/175/40 56/177/40
f 53/9/57 54/122/57 50/113/57
f 52/114/58 48/178/58 47/115/58
f 59/116/43 60/8/43 62/17/43
f 65/25/44 63/24/44 64/118/44
f 61/117/45 62/17/45 56/16/45
f 63/24/46 58/148/46 57/121/46
f 54/122/59 53/9/59 60/8/59
f 51/1/60 65/25/60 66/119/60
f 10/124/49 8/179/49 47/125/49
f 47/125/49 48/180/49 49/181/49
f 49/181/49 50/123/49 47/125/49
f 11/126/11 14/30/11 69/127/11
f 15/129/11 13/132/11 68/130/11
f 13/132/11 15/129/11 78/133/11
f 77/135/2 76/140/2 73/136/2
f 15/129/11 14/30/11 75/32/11
f 73/136/50 74/142/50 71/138/50
f 77/135/51 78/141/51 75/139/51
f 78/141/52 77/135/52 72/137/52
f 74/142/53 73/136/53 76/140/53
f 11/126/11 13/132/11 71/134/11
